class-001-sample-061-8bit.png 0
class-001-sample-062-8bit.png 0
class-001-sample-063-8bit.png 0
class-001-sample-064-8bit.png 0
class-001-sample-065-8bit.png 0
class-001-sample-066-8bit.png 0
class-001-sample-067-8bit.png 0
class-001-sample-068-8bit.png 0
class-001-sample-069-8bit.png 0
class-001-sample-070-8bit.png 0
class-001-sample-071-8bit.png 0
class-001-sample-072-8bit.png 0
class-001-sample-073-8bit.png 0
class-001-sample-074-8bit.png 0
class-001-sample-075-8bit.png 0
class-001-sample-076-8bit.png 0
class-001-sample-077-8bit.png 0
class-001-sample-078-8bit.png 0
class-001-sample-079-8bit.png 0
class-001-sample-080-8bit.png 0
class-001-sample-081-8bit.png 0
class-001-sample-082-8bit.png 0
class-001-sample-083-8bit.png 0
class-001-sample-084-8bit.png 0
class-001-sample-085-8bit.png 0
class-001-sample-086-8bit.png 0
class-001-sample-087-8bit.png 0
class-001-sample-088-8bit.png 0
class-001-sample-089-8bit.png 0
class-001-sample-090-8bit.png 0
class-002-sample-061-8bit.png 1
class-002-sample-062-8bit.png 1
class-002-sample-063-8bit.png 1
class-002-sample-064-8bit.png 1
class-002-sample-065-8bit.png 1
class-002-sample-066-8bit.png 1
class-002-sample-067-8bit.png 1
class-002-sample-068-8bit.png 1
class-002-sample-069-8bit.png 1
class-002-sample-070-8bit.png 1
class-002-sample-071-8bit.png 1
class-002-sample-072-8bit.png 1
class-002-sample-073-8bit.png 1
class-002-sample-074-8bit.png 1
class-002-sample-075-8bit.png 1
class-002-sample-076-8bit.png 1
class-002-sample-077-8bit.png 1
class-002-sample-078-8bit.png 1
class-002-sample-079-8bit.png 1
class-002-sample-080-8bit.png 1
class-002-sample-081-8bit.png 1
class-002-sample-082-8bit.png 1
class-002-sample-083-8bit.png 1
class-002-sample-084-8bit.png 1
class-002-sample-085-8bit.png 1
class-002-sample-086-8bit.png 1
class-002-sample-087-8bit.png 1
class-002-sample-088-8bit.png 1
class-002-sample-089-8bit.png 1
class-002-sample-090-8bit.png 1
class-003-sample-061-8bit.png 2
class-003-sample-062-8bit.png 2
class-003-sample-063-8bit.png 2
class-003-sample-064-8bit.png 2
class-003-sample-065-8bit.png 2
class-003-sample-066-8bit.png 2
class-003-sample-067-8bit.png 2
class-003-sample-068-8bit.png 2
class-003-sample-069-8bit.png 2
class-003-sample-070-8bit.png 2
class-003-sample-071-8bit.png 2
class-003-sample-072-8bit.png 2
class-003-sample-073-8bit.png 2
class-003-sample-074-8bit.png 2
class-003-sample-075-8bit.png 2
class-003-sample-076-8bit.png 2
class-003-sample-077-8bit.png 2
class-003-sample-078-8bit.png 2
class-003-sample-079-8bit.png 2
class-003-sample-080-8bit.png 2
class-003-sample-081-8bit.png 2
class-003-sample-082-8bit.png 2
class-003-sample-083-8bit.png 2
class-003-sample-084-8bit.png 2
class-003-sample-085-8bit.png 2
class-003-sample-086-8bit.png 2
class-003-sample-087-8bit.png 2
class-003-sample-088-8bit.png 2
class-003-sample-089-8bit.png 2
class-003-sample-090-8bit.png 2
class-004-sample-061-8bit.png 3
class-004-sample-062-8bit.png 3
class-004-sample-063-8bit.png 3
class-004-sample-064-8bit.png 3
class-004-sample-065-8bit.png 3
class-004-sample-066-8bit.png 3
class-004-sample-067-8bit.png 3
class-004-sample-068-8bit.png 3
class-004-sample-069-8bit.png 3
class-004-sample-070-8bit.png 3
class-004-sample-071-8bit.png 3
class-004-sample-072-8bit.png 3
class-004-sample-073-8bit.png 3
class-004-sample-074-8bit.png 3
class-004-sample-075-8bit.png 3
class-004-sample-076-8bit.png 3
class-004-sample-077-8bit.png 3
class-004-sample-078-8bit.png 3
class-004-sample-079-8bit.png 3
class-004-sample-080-8bit.png 3
class-004-sample-081-8bit.png 3
class-004-sample-082-8bit.png 3
class-004-sample-083-8bit.png 3
class-004-sample-084-8bit.png 3
class-004-sample-085-8bit.png 3
class-004-sample-086-8bit.png 3
class-004-sample-087-8bit.png 3
class-004-sample-088-8bit.png 3
class-004-sample-089-8bit.png 3
class-004-sample-090-8bit.png 3
class-005-sample-061-8bit.png 4
class-005-sample-062-8bit.png 4
class-005-sample-063-8bit.png 4
class-005-sample-064-8bit.png 4
class-005-sample-065-8bit.png 4
class-005-sample-066-8bit.png 4
class-005-sample-067-8bit.png 4
class-005-sample-068-8bit.png 4
class-005-sample-069-8bit.png 4
class-005-sample-070-8bit.png 4
class-005-sample-071-8bit.png 4
class-005-sample-072-8bit.png 4
class-005-sample-073-8bit.png 4
class-005-sample-074-8bit.png 4
class-005-sample-075-8bit.png 4
class-005-sample-076-8bit.png 4
class-005-sample-077-8bit.png 4
class-005-sample-078-8bit.png 4
class-005-sample-079-8bit.png 4
class-005-sample-080-8bit.png 4
class-005-sample-081-8bit.png 4
class-005-sample-082-8bit.png 4
class-005-sample-083-8bit.png 4
class-005-sample-084-8bit.png 4
class-005-sample-085-8bit.png 4
class-005-sample-086-8bit.png 4
class-005-sample-087-8bit.png 4
class-005-sample-088-8bit.png 4
class-005-sample-089-8bit.png 4
class-005-sample-090-8bit.png 4
class-006-sample-061-8bit.png 5
class-006-sample-062-8bit.png 5
class-006-sample-063-8bit.png 5
class-006-sample-064-8bit.png 5
class-006-sample-065-8bit.png 5
class-006-sample-066-8bit.png 5
class-006-sample-067-8bit.png 5
class-006-sample-068-8bit.png 5
class-006-sample-069-8bit.png 5
class-006-sample-070-8bit.png 5
class-006-sample-071-8bit.png 5
class-006-sample-072-8bit.png 5
class-006-sample-073-8bit.png 5
class-006-sample-074-8bit.png 5
class-006-sample-075-8bit.png 5
class-006-sample-076-8bit.png 5
class-006-sample-077-8bit.png 5
class-006-sample-078-8bit.png 5
class-006-sample-079-8bit.png 5
class-006-sample-080-8bit.png 5
class-006-sample-081-8bit.png 5
class-006-sample-082-8bit.png 5
class-006-sample-083-8bit.png 5
class-006-sample-084-8bit.png 5
class-006-sample-085-8bit.png 5
class-006-sample-086-8bit.png 5
class-006-sample-087-8bit.png 5
class-006-sample-088-8bit.png 5
class-006-sample-089-8bit.png 5
class-006-sample-090-8bit.png 5
class-007-sample-061-8bit.png 6
class-007-sample-062-8bit.png 6
class-007-sample-063-8bit.png 6
class-007-sample-064-8bit.png 6
class-007-sample-065-8bit.png 6
class-007-sample-066-8bit.png 6
class-007-sample-067-8bit.png 6
class-007-sample-068-8bit.png 6
class-007-sample-069-8bit.png 6
class-007-sample-070-8bit.png 6
class-007-sample-071-8bit.png 6
class-007-sample-072-8bit.png 6
class-007-sample-073-8bit.png 6
class-007-sample-074-8bit.png 6
class-007-sample-075-8bit.png 6
class-007-sample-076-8bit.png 6
class-007-sample-077-8bit.png 6
class-007-sample-078-8bit.png 6
class-007-sample-079-8bit.png 6
class-007-sample-080-8bit.png 6
class-007-sample-081-8bit.png 6
class-007-sample-082-8bit.png 6
class-007-sample-083-8bit.png 6
class-007-sample-084-8bit.png 6
class-007-sample-085-8bit.png 6
class-007-sample-086-8bit.png 6
class-007-sample-087-8bit.png 6
class-007-sample-088-8bit.png 6
class-007-sample-089-8bit.png 6
class-007-sample-090-8bit.png 6
class-008-sample-061-8bit.png 7
class-008-sample-062-8bit.png 7
class-008-sample-063-8bit.png 7
class-008-sample-064-8bit.png 7
class-008-sample-065-8bit.png 7
class-008-sample-066-8bit.png 7
class-008-sample-067-8bit.png 7
class-008-sample-068-8bit.png 7
class-008-sample-069-8bit.png 7
class-008-sample-070-8bit.png 7
class-008-sample-071-8bit.png 7
class-008-sample-072-8bit.png 7
class-008-sample-073-8bit.png 7
class-008-sample-074-8bit.png 7
class-008-sample-075-8bit.png 7
class-008-sample-076-8bit.png 7
class-008-sample-077-8bit.png 7
class-008-sample-078-8bit.png 7
class-008-sample-079-8bit.png 7
class-008-sample-080-8bit.png 7
class-008-sample-081-8bit.png 7
class-008-sample-082-8bit.png 7
class-008-sample-083-8bit.png 7
class-008-sample-084-8bit.png 7
class-008-sample-085-8bit.png 7
class-008-sample-086-8bit.png 7
class-008-sample-087-8bit.png 7
class-008-sample-088-8bit.png 7
class-008-sample-089-8bit.png 7
class-008-sample-090-8bit.png 7
class-009-sample-061-8bit.png 8
class-009-sample-062-8bit.png 8
class-009-sample-063-8bit.png 8
class-009-sample-064-8bit.png 8
class-009-sample-065-8bit.png 8
class-009-sample-066-8bit.png 8
class-009-sample-067-8bit.png 8
class-009-sample-068-8bit.png 8
class-009-sample-069-8bit.png 8
class-009-sample-070-8bit.png 8
class-009-sample-071-8bit.png 8
class-009-sample-072-8bit.png 8
class-009-sample-073-8bit.png 8
class-009-sample-074-8bit.png 8
class-009-sample-075-8bit.png 8
class-009-sample-076-8bit.png 8
class-009-sample-077-8bit.png 8
class-009-sample-078-8bit.png 8
class-009-sample-079-8bit.png 8
class-009-sample-080-8bit.png 8
class-009-sample-081-8bit.png 8
class-009-sample-082-8bit.png 8
class-009-sample-083-8bit.png 8
class-009-sample-084-8bit.png 8
class-009-sample-085-8bit.png 8
class-009-sample-086-8bit.png 8
class-009-sample-087-8bit.png 8
class-009-sample-088-8bit.png 8
class-009-sample-089-8bit.png 8
class-009-sample-090-8bit.png 8
class-010-sample-061-8bit.png 9
class-010-sample-062-8bit.png 9
class-010-sample-063-8bit.png 9
class-010-sample-064-8bit.png 9
class-010-sample-065-8bit.png 9
class-010-sample-066-8bit.png 9
class-010-sample-067-8bit.png 9
class-010-sample-068-8bit.png 9
class-010-sample-069-8bit.png 9
class-010-sample-070-8bit.png 9
class-010-sample-071-8bit.png 9
class-010-sample-072-8bit.png 9
class-010-sample-073-8bit.png 9
class-010-sample-074-8bit.png 9
class-010-sample-075-8bit.png 9
class-010-sample-076-8bit.png 9
class-010-sample-077-8bit.png 9
class-010-sample-078-8bit.png 9
class-010-sample-079-8bit.png 9
class-010-sample-080-8bit.png 9
class-010-sample-081-8bit.png 9
class-010-sample-082-8bit.png 9
class-010-sample-083-8bit.png 9
class-010-sample-084-8bit.png 9
class-010-sample-085-8bit.png 9
class-010-sample-086-8bit.png 9
class-010-sample-087-8bit.png 9
class-010-sample-088-8bit.png 9
class-010-sample-089-8bit.png 9
class-010-sample-090-8bit.png 9
class-011-sample-061-8bit.png 10
class-011-sample-062-8bit.png 10
class-011-sample-063-8bit.png 10
class-011-sample-064-8bit.png 10
class-011-sample-065-8bit.png 10
class-011-sample-066-8bit.png 10
class-011-sample-067-8bit.png 10
class-011-sample-068-8bit.png 10
class-011-sample-069-8bit.png 10
class-011-sample-070-8bit.png 10
class-011-sample-071-8bit.png 10
class-011-sample-072-8bit.png 10
class-011-sample-073-8bit.png 10
class-011-sample-074-8bit.png 10
class-011-sample-075-8bit.png 10
class-011-sample-076-8bit.png 10
class-011-sample-077-8bit.png 10
class-011-sample-078-8bit.png 10
class-011-sample-079-8bit.png 10
class-011-sample-080-8bit.png 10
class-011-sample-081-8bit.png 10
class-011-sample-082-8bit.png 10
class-011-sample-083-8bit.png 10
class-011-sample-084-8bit.png 10
class-011-sample-085-8bit.png 10
class-011-sample-086-8bit.png 10
class-011-sample-087-8bit.png 10
class-011-sample-088-8bit.png 10
class-011-sample-089-8bit.png 10
class-011-sample-090-8bit.png 10
class-012-sample-061-8bit.png 11
class-012-sample-062-8bit.png 11
class-012-sample-063-8bit.png 11
class-012-sample-064-8bit.png 11
class-012-sample-065-8bit.png 11
class-012-sample-066-8bit.png 11
class-012-sample-067-8bit.png 11
class-012-sample-068-8bit.png 11
class-012-sample-069-8bit.png 11
class-012-sample-070-8bit.png 11
class-012-sample-071-8bit.png 11
class-012-sample-072-8bit.png 11
class-012-sample-073-8bit.png 11
class-012-sample-074-8bit.png 11
class-012-sample-075-8bit.png 11
class-012-sample-076-8bit.png 11
class-012-sample-077-8bit.png 11
class-012-sample-078-8bit.png 11
class-012-sample-079-8bit.png 11
class-012-sample-080-8bit.png 11
class-012-sample-081-8bit.png 11
class-012-sample-082-8bit.png 11
class-012-sample-083-8bit.png 11
class-012-sample-084-8bit.png 11
class-012-sample-085-8bit.png 11
class-012-sample-086-8bit.png 11
class-012-sample-087-8bit.png 11
class-012-sample-088-8bit.png 11
class-012-sample-089-8bit.png 11
class-012-sample-090-8bit.png 11
class-013-sample-061-8bit.png 12
class-013-sample-062-8bit.png 12
class-013-sample-063-8bit.png 12
class-013-sample-064-8bit.png 12
class-013-sample-065-8bit.png 12
class-013-sample-066-8bit.png 12
class-013-sample-067-8bit.png 12
class-013-sample-068-8bit.png 12
class-013-sample-069-8bit.png 12
class-013-sample-070-8bit.png 12
class-013-sample-071-8bit.png 12
class-013-sample-072-8bit.png 12
class-013-sample-073-8bit.png 12
class-013-sample-074-8bit.png 12
class-013-sample-075-8bit.png 12
class-013-sample-076-8bit.png 12
class-013-sample-077-8bit.png 12
class-013-sample-078-8bit.png 12
class-013-sample-079-8bit.png 12
class-013-sample-080-8bit.png 12
class-013-sample-081-8bit.png 12
class-013-sample-082-8bit.png 12
class-013-sample-083-8bit.png 12
class-013-sample-084-8bit.png 12
class-013-sample-085-8bit.png 12
class-013-sample-086-8bit.png 12
class-013-sample-087-8bit.png 12
class-013-sample-088-8bit.png 12
class-013-sample-089-8bit.png 12
class-013-sample-090-8bit.png 12
class-014-sample-061-8bit.png 13
class-014-sample-062-8bit.png 13
class-014-sample-063-8bit.png 13
class-014-sample-064-8bit.png 13
class-014-sample-065-8bit.png 13
class-014-sample-066-8bit.png 13
class-014-sample-067-8bit.png 13
class-014-sample-068-8bit.png 13
class-014-sample-069-8bit.png 13
class-014-sample-070-8bit.png 13
class-014-sample-071-8bit.png 13
class-014-sample-072-8bit.png 13
class-014-sample-073-8bit.png 13
class-014-sample-074-8bit.png 13
class-014-sample-075-8bit.png 13
class-014-sample-076-8bit.png 13
class-014-sample-077-8bit.png 13
class-014-sample-078-8bit.png 13
class-014-sample-079-8bit.png 13
class-014-sample-080-8bit.png 13
class-014-sample-081-8bit.png 13
class-014-sample-082-8bit.png 13
class-014-sample-083-8bit.png 13
class-014-sample-084-8bit.png 13
class-014-sample-085-8bit.png 13
class-014-sample-086-8bit.png 13
class-014-sample-087-8bit.png 13
class-014-sample-088-8bit.png 13
class-014-sample-089-8bit.png 13
class-014-sample-090-8bit.png 13
class-015-sample-061-8bit.png 14
class-015-sample-062-8bit.png 14
class-015-sample-063-8bit.png 14
class-015-sample-064-8bit.png 14
class-015-sample-065-8bit.png 14
class-015-sample-066-8bit.png 14
class-015-sample-067-8bit.png 14
class-015-sample-068-8bit.png 14
class-015-sample-069-8bit.png 14
class-015-sample-070-8bit.png 14
class-015-sample-071-8bit.png 14
class-015-sample-072-8bit.png 14
class-015-sample-073-8bit.png 14
class-015-sample-074-8bit.png 14
class-015-sample-075-8bit.png 14
class-015-sample-076-8bit.png 14
class-015-sample-077-8bit.png 14
class-015-sample-078-8bit.png 14
class-015-sample-079-8bit.png 14
class-015-sample-080-8bit.png 14
class-015-sample-081-8bit.png 14
class-015-sample-082-8bit.png 14
class-015-sample-083-8bit.png 14
class-015-sample-084-8bit.png 14
class-015-sample-085-8bit.png 14
class-015-sample-086-8bit.png 14
class-015-sample-087-8bit.png 14
class-015-sample-088-8bit.png 14
class-015-sample-089-8bit.png 14
class-015-sample-090-8bit.png 14
